{
    "e7b394ff-e108-4ff9-816d-bb7d36ea5e7d": {
        "key": "e7b394ff-e108-4ff9-816d-bb7d36ea5e7d",
        "series_number": {
            "$key": "04b96934-b6e4-41ee-8654-06d4e0194e9b",
            "$table": "KernelVersion"
        },
        "series_number_collapsed": "50"
    }
}