{
    "1cae5101-7bc6-424b-8da0-f7cf6ce166e0": {
        "key": "1cae5101-7bc6-424b-8da0-f7cf6ce166e0",
        "path": "workspaces/4.14",
        "version": {
            "$key": "3adfbdb2-afaa-497e-aadf-d03c9df2b194",
            "$table": "KernelVersion"
        }
    },
    "cace14d8-3dd7-4bd1-93da-cb576dcc8bd6": {
        "key": "cace14d8-3dd7-4bd1-93da-cb576dcc8bd6",
        "path": "workspaces/4.10",
        "version": {
            "$key": "aaa90740-ce1c-429f-a23e-ebd69b625c7f",
            "$table": "KernelVersion"
        }
    },
    "933f4e1c-6e64-455d-911d-29a3f41008ce": {
        "key": "933f4e1c-6e64-455d-911d-29a3f41008ce",
        "path": "workspaces/4.15",
        "version": {
            "$key": "dd1fc8dd-671d-4933-8460-b15c38d45a46",
            "$table": "KernelVersion"
        }
    },
    "58915a70-3826-4584-80ce-d1f40dbfe26d": {
        "key": "58915a70-3826-4584-80ce-d1f40dbfe26d",
        "path": "workspaces/4.17",
        "version": {
            "$key": "ea7dcbfc-985c-4f09-af35-ba2d748d3518",
            "$table": "KernelVersion"
        }
    },
    "3df99645-d619-4f9b-ad54-8de2bed6ee7e": {
        "key": "3df99645-d619-4f9b-ad54-8de2bed6ee7e",
        "path": "workspaces/4.18",
        "version": {
            "$key": "043cb937-8102-47cf-b6d3-1aa037427453",
            "$table": "KernelVersion"
        }
    },
    "de136960-11fb-4d66-94ee-deab390f2e1e": {
        "key": "de136960-11fb-4d66-94ee-deab390f2e1e",
        "path": "workspaces/4.20",
        "version": {
            "$key": "6b124789-6a9a-4468-bac6-7d5889f69347",
            "$table": "KernelVersion"
        }
    },
    "112ecf7f-72dd-412d-97d9-5bf891923acd": {
        "key": "112ecf7f-72dd-412d-97d9-5bf891923acd",
        "path": "workspaces/4.19.5",
        "version": {
            "$key": "5985f55e-9a28-4955-9dd9-79d5dfe415de",
            "$table": "KernelVersion"
        }
    },
    "8154adab-14d1-47d2-9e9e-cf9d7b81e4c7": {
        "key": "8154adab-14d1-47d2-9e9e-cf9d7b81e4c7",
        "path": "workspaces/5.0",
        "version": {
            "$key": "04b96934-b6e4-41ee-8654-06d4e0194e9b",
            "$table": "KernelVersion"
        }
    },
    "d2135fd1-3f59-4bf6-814b-c807c1f7eff9": {
        "key": "d2135fd1-3f59-4bf6-814b-c807c1f7eff9",
        "path": "workspaces/5.1",
        "version": {
            "$key": "ea035111-4221-4337-bf11-d043bef30de1",
            "$table": "KernelVersion"
        }
    },
    "2a164900-77b2-4ae6-bcf6-58de62e59924": {
        "key": "2a164900-77b2-4ae6-bcf6-58de62e59924",
        "path": "workspaces/5.0.8",
        "version": {
            "$key": "f07e85da-3cba-43da-a804-ea5e8f9ac534",
            "$table": "KernelVersion"
        }
    },
    "70571723-f926-420f-a948-51d67f12d619": {
        "key": "70571723-f926-420f-a948-51d67f12d619",
        "path": "workspaces/5.4",
        "version": {
            "$key": "042039d2-10a7-4450-a8cf-2ea00d4f6339",
            "$table": "KernelVersion"
        }
    }
}