{
    "08379ff4-72f7-4e3f-a427-ff7a60583233": {
        "key": "08379ff4-72f7-4e3f-a427-ff7a60583233",
        "type": "mainline",
        "build_job_id": "122083767",
        "version": {
            "$key": "d8312329-3deb-47c7-82f9-d0a560279b5a",
            "$table": "KernelVersion"
        },
        "kernel_series": {
            "$key": "83aea4d0-b730-46d1-928e-cbb0afb57827",
            "$table": "KernelSeries"
        },
        "workspace": {
            "$key": "de136960-11fb-4d66-94ee-deab390f2e1e",
            "$table": "Workspace"
        }
    }
}