{
    "0968be1b-6823-4ae7-8c59-b2b801f20941": {
        "key": "0968be1b-6823-4ae7-8c59-b2b801f20941",
        "type": "stable",
        "build_job_id": "279623923",
        "version": {
            "$key": "ebe54398-c436-41e3-a83e-576329757b6f",
            "$table": "KernelVersion"
        },
        "kernel_series": {
            "$key": "d9e104f5-bebb-45de-8702-b7de2a84f8d7",
            "$table": "KernelSeries"
        },
        "workspace": {
            "$key": "d2135fd1-3f59-4bf6-814b-c807c1f7eff9",
            "$table": "Workspace"
        }
    }
}