{
    "46739b77-0962-40a7-948b-409f60f895a8": {
        "key": "46739b77-0962-40a7-948b-409f60f895a8",
        "type": "stable",
        "build_job_id": "308458906",
        "version": {
            "$key": "08f0386f-2b13-4da4-989d-256401606cc2",
            "$table": "KernelVersion"
        },
        "kernel_series": {
            "$key": "a33396ca-c7ad-4f97-9c92-72ac341f361c",
            "$table": "KernelSeries"
        },
        "workspace": {
            "$key": "d2135fd1-3f59-4bf6-814b-c807c1f7eff9",
            "$table": "Workspace"
        }
    }
}