{
    "4c0a96d3-2e3a-4f9b-889c-ba9bea63af6d": {
        "key": "4c0a96d3-2e3a-4f9b-889c-ba9bea63af6d",
        "type": "stable",
        "build_job_id": "312737183",
        "version": {
            "$key": "df1fb40d-b535-4703-b7dd-6ee018527a6b",
            "$table": "KernelVersion"
        },
        "kernel_series": {
            "$key": "a33396ca-c7ad-4f97-9c92-72ac341f361c",
            "$table": "KernelSeries"
        },
        "workspace": {
            "$key": "d2135fd1-3f59-4bf6-814b-c807c1f7eff9",
            "$table": "Workspace"
        }
    }
}