{
    "805c0dcd-7560-4c26-91c9-2288ddd017c2": {
        "key": "805c0dcd-7560-4c26-91c9-2288ddd017c2",
        "type": "stable",
        "build_job_id": "282958492",
        "version": {
            "$key": "c9d1adc7-8511-44f5-b305-e0a0eea571c0",
            "$table": "KernelVersion"
        },
        "kernel_series": {
            "$key": "d9e104f5-bebb-45de-8702-b7de2a84f8d7",
            "$table": "KernelSeries"
        },
        "workspace": {
            "$key": "d2135fd1-3f59-4bf6-814b-c807c1f7eff9",
            "$table": "Workspace"
        }
    }
}