{
    "9ba4c8d1-e526-47af-8a23-66269a5f8678": {
        "key": "9ba4c8d1-e526-47af-8a23-66269a5f8678",
        "type": "stable",
        "build_job_id": "120021647",
        "version": {
            "$key": "83fd0b69-8be8-48a1-959f-587941b355fa",
            "$table": "KernelVersion"
        },
        "kernel_series": {
            "$key": "64bb0870-32ce-4051-ba4c-8d83b53bee00",
            "$table": "KernelSeries"
        },
        "workspace": {
            "$key": "3df99645-d619-4f9b-ad54-8de2bed6ee7e",
            "$table": "Workspace"
        }
    }
}