{
    "c1b0ae51-f9b0-45ed-b2bb-fc6ff6209662": {
        "key": "c1b0ae51-f9b0-45ed-b2bb-fc6ff6209662",
        "type": "mainline",
        "build_job_id": "290299884",
        "version": {
            "$key": "4f03ac54-c524-4e0c-8c9d-5c44b856d0c4",
            "$table": "KernelVersion"
        },
        "kernel_series": {
            "$key": "a33396ca-c7ad-4f97-9c92-72ac341f361c",
            "$table": "KernelSeries"
        },
        "workspace": {
            "$key": "d2135fd1-3f59-4bf6-814b-c807c1f7eff9",
            "$table": "Workspace"
        }
    }
}