{
    "f15366e3-8476-44da-9097-15da6e9be995": {
        "key": "f15366e3-8476-44da-9097-15da6e9be995",
        "type": "stable",
        "build_job_id": "157421272",
        "version": {
            "$key": "1ebfd002-6ada-4d4c-9fff-b0407d6a1f91",
            "$table": "KernelVersion"
        },
        "kernel_series": {
            "$key": "83aea4d0-b730-46d1-928e-cbb0afb57827",
            "$table": "KernelSeries"
        },
        "workspace": {
            "$key": "de136960-11fb-4d66-94ee-deab390f2e1e",
            "$table": "Workspace"
        }
    }
}